Ticket:  3487
Status:  closed
Summary: Display problems for mbox-files > 2GiB

Reporter: antonio@dyne.org
Owner:    me

Opened:       2011-01-01 19:45:54 UTC
Last Updated: 2013-10-23 18:18:59 UTC

Priority:  trivial
Component: mutt
Keywords:  patch

--------------------------------------------------------------------------------
Description:
Forwarding from http://bugs.debian.org/602145

{{{
I archive some old Mail in mbox files.  Recently one of those has become larger than 2GiB.  Mutt still appears to be able to read the headers
correctly, but instead of the body it displays some random chunk of the mbox file for mails starting after the 2GiB boundary in the mbox.  The exact conditions appears to be that the body must start before 2GiB for everything to work fine, even if the body then crosses the 2GiB barrier.

Here is a collection of what works and what doesn't for mails after the 2GiB barrier:

Works:

 - Headers are displayed correctly.

 - Piping the entire mail to some shell-command.

 - Viewing the structure of a MIME-message in the attachmend browser.

 - From the attachment browser: Viewing (and piping) some parts of
   MIME-messages, such as a GPG signature.

Doesn't work:

 - Displaying the body.

 - Verifying GPG-Encrypted messages.

 - From the attachment browser: Viewing (and piping) some parts of
   MIME-messages, such as GPG-signed text.

 - From the attachment browser: Viewing (and piping) some parts of messages such as the body-text of non-multipart mails.  I even get a different part of the mbox file for the first 5 to 10 tries, until it settles to only show me empty text.

The attached perl script will generate a mbox file slightly larger than 2GiB on stdout to illustrate the problem.  Note that it had to be a script because I had to give each mail in the mbox a unique Message-ID, otherwise mutt assumes they are all in one thread and takes ages to sort the mails for display.  In an mbox generated by the unmodified skript the last two mails show the broken behaviour.

I suggest to either fix the broken behaviour.  If that proves to be too difficult, I suggest to refuse opening mbox files larger than 2GiB (at least on 32 bit architectures).  This smells like some integer overflow and those tend to have security implications.
}}}

--------------------------------------------------------------------------------
2011-01-01 19:46:06 UTC antonio@dyne.org
* Added attachment make-mbox.pl

--------------------------------------------------------------------------------
2011-01-01 20:32:58 UTC Joe
* cc changed to 602145@bugs.debian.org, jorrit@jorrit.de

--------------------------------------------------------------------------------
2013-03-07 12:09:27 UTC ansgar
* cc changed to 602145@bugs.debian.org, jorrit@jorrit.de, ansgar@debian.org
* Added comment:
Jö and I wrote the attached patch after playing a bit with gdb. The
tmpoffset variable is used to temporarily store a off_t value:

  tmpoffset = b->offset;
  ...
  b->offset = tmpoffset;

This doesn't work if sizeof(off_t) != sizeof(long) as on i386 with
64-bit off_t.

Ansgar

--------------------------------------------------------------------------------
2013-03-07 12:09:51 UTC ansgar
* Added attachment 602145.patch

--------------------------------------------------------------------------------
2013-03-07 15:50:36 UTC Joe
* keywords changed to patch

--------------------------------------------------------------------------------
2013-04-22 08:32:34 UTC ansgar
* Added comment:
Is there still something to do to get this patch applied? There hasn't been any feedback.

The patch is tiny (just changes one type) and should be easy to review ;)  While the patch is against 1.5.21 the problematic code is still present in the current Hg HEAD in the mutt_body_handler function (though the line numbers have changed a bit).

Ansgar

--------------------------------------------------------------------------------
2013-07-05 12:37:11 UTC ansgar
* Added comment:
Any chance to get this tiny patch reviewed and applied?

Ansgar

--------------------------------------------------------------------------------
2013-10-06 16:19:27 UTC me
* Added attachment long_offset
* Added comment:
proposed patch

--------------------------------------------------------------------------------
2013-10-06 16:20:40 UTC me
* Added comment:
There is a macro LOFF_T for this purpose.  Older systems may not have off_t, so we use LOFF_T and the configure script substitutes the best possible type available on the system.  See the attached patch.

* Updated description:
Forwarding from http://bugs.debian.org/602145

{{{
I archive some old Mail in mbox files.  Recently one of those has become larger than 2GiB.  Mutt still appears to be able to read the headers
correctly, but instead of the body it displays some random chunk of the mbox file for mails starting after the 2GiB boundary in the mbox.  The exact conditions appears to be that the body must start before 2GiB for everything to work fine, even if the body then crosses the 2GiB barrier.

Here is a collection of what works and what doesn't for mails after the 2GiB barrier:

Works:

 - Headers are displayed correctly.

 - Piping the entire mail to some shell-command.

 - Viewing the structure of a MIME-message in the attachmend browser.

 - From the attachment browser: Viewing (and piping) some parts of
   MIME-messages, such as a GPG signature.

Doesn't work:

 - Displaying the body.

 - Verifying GPG-Encrypted messages.

 - From the attachment browser: Viewing (and piping) some parts of
   MIME-messages, such as GPG-signed text.

 - From the attachment browser: Viewing (and piping) some parts of messages such as the body-text of non-multipart mails.  I even get a different part of the mbox file for the first 5 to 10 tries, until it settles to only show me empty text.

The attached perl script will generate a mbox file slightly larger than 2GiB on stdout to illustrate the problem.  Note that it had to be a script because I had to give each mail in the mbox a unique Message-ID, otherwise mutt assumes they are all in one thread and takes ages to sort the mails for display.  In an mbox generated by the unmodified skript the last two mails show the broken behaviour.

I suggest to either fix the broken behaviour.  If that proves to be too difficult, I suggest to refuse opening mbox files larger than 2GiB (at least on 32 bit architectures).  This smells like some integer overflow and those tend to have security implications.
}}}
* owner changed to me
* status changed to assigned

--------------------------------------------------------------------------------
2013-10-23 18:18:59 UTC Michael Elkins <me@sigpipe.org>
* Added comment:
In [99d913f46eb9d694b6d361cf4d0061d66f2a21b4]:
{{{
#!CommitTicketReference repository="" revision="99d913f46eb9d694b6d361cf4d0061d66f2a21b4"
use LOFF_T as the type for variables used in fseeko()

closes #3487
}}}

* resolution changed to fixed
* status changed to closed
